residuos,total,media_total_mensal,total_por_89_ecopontos,media_por_ecoponto,percentual
Entulho (ton),"124254.60","10354.55","1396.12","116.34","80.73%"
Volumosos (ton),"29653.05","2471.09","333.18","27.77","19.27%"
Papel / Papelão (ton),"583.04","48.59","6.55","0.55","51.61%"
Plástico (ton),"129.52","10.79","1.46","0.12","11.46%"
Metal (ton),"108.35","9.03","1.22","0.10","9.59%"
Vidro (ton),"291.42","24.28","3.27","0.27","25.79%"
OGR (L),"17.45","1.45","0.20","0.02","1.54%"